<?xml version="1.0" encoding="iso-8859-1"?>
<!-- Generator: Adobe Illustrator 19.0.0, SVG Export Plug-In . SVG Version: 6.00 Build 0)  -->
<svg version="1.1" id="Capa_1" xmlns="http://www.w3.org/2000/svg" xmlns:xlink="http://www.w3.org/1999/xlink" x="0px" y="0px"
	 viewBox="0 0 468.293 468.293" style="enable-background:new 0 0 468.293 468.293;" xml:space="preserve">
<path style="fill:#27A2DB;" d="M449.561,438.684H18.732C8.386,438.684,0,430.297,0,419.952V48.341
	c0-10.345,8.386-18.732,18.732-18.732h430.829c10.345,0,18.732,8.386,18.732,18.732v371.611
	C468.293,430.297,459.906,438.684,449.561,438.684z"/>
<circle style="fill:#FCD462;" cx="46.829" cy="76.438" r="15.61"/>
<circle style="fill:#E56353;" cx="96.78" cy="76.438" r="15.61"/>
<circle style="fill:#44C4A1;" cx="146.732" cy="76.438" r="15.61"/>
<path style="fill:#E1E6E9;" d="M424.585,88.926H218.954c-6.897,0-12.488-5.591-12.488-12.488v0c0-6.897,5.591-12.488,12.488-12.488
	h205.632c6.897,0,12.488,5.591,12.488,12.488v0C437.073,83.335,431.482,88.926,424.585,88.926z"/>
<rect x="31.22" y="123.461" style="fill:#EBF0F3;" width="405.854" height="283.785"/>
<rect x="62.439" y="154.661" style="fill:#E56353;" width="74.927" height="96"/>
<rect x="62.439" y="280.039" style="fill:#44C4A1;" width="74.927" height="96"/>
<g>
	<rect x="168.585" y="194.872" style="fill:#E56353;" width="237.268" height="15.61"/>
	<rect x="168.585" y="154.661" style="fill:#E56353;" width="237.268" height="15.61"/>
	<rect x="168.585" y="235.083" style="fill:#E56353;" width="237.268" height="15.61"/>
</g>
<g>
	<rect x="168.585" y="320.25" style="fill:#44C4A1;" width="237.268" height="15.61"/>
	<rect x="168.585" y="280.039" style="fill:#44C4A1;" width="237.268" height="15.61"/>
	<rect x="168.585" y="360.46" style="fill:#44C4A1;" width="237.268" height="15.61"/>
</g>
<g>
</g>
<g>
</g>
<g>
</g>
<g>
</g>
<g>
</g>
<g>
</g>
<g>
</g>
<g>
</g>
<g>
</g>
<g>
</g>
<g>
</g>
<g>
</g>
<g>
</g>
<g>
</g>
<g>
</g>
</svg>
