code,default,vi,en,ja
common.homepage,common.homepage,"Trang chủ","Homepage",
common.productSystem,common.productSystem,"Hệ thống <br class='md:hidden'> sản phẩm","Products",
common.blog,common.blog,"Tin tức","Blog",
common.language,common.language,"Ngôn ngữ","Language","言語"
common.viewAll,common.viewAll,"Xem tất cả","View all",
common.detail,common.detail,"Chi tiết","More details",
common.pagination.currentPage,common.pagination.currentPage,":items tin của trang :curr / :last",":items items in page :curr / :last",
common.pagination.showing,common.pagination.showing,"Đang hiển thị :curr / :total tin","Showing :curr / :total items",
common.pagination.prev,common.pagination.prev,"Trước","Previous",
common.pagination.next,common.pagination.next,"Tiếp","Next",
common.404,common.404,"...Chúng tôi không tìm thấy trang bạn yêu cầu","Page not found...",
common.error,common.error,"...Rất tiếc, đã có lỗi xảy ra!","An unexpected error has occurred...",
home.process.title,home.process.title,"Quy trình <br class='md:hidden'> sản xuất","Production process",
home.process.point.1.title,home.process.point.1.title,"Quy trình quản lý chất lượng","Quality management process",
home.process.point.1.content,home.process.point.1.content,"ISO 9001:2015 do NQA của Anh chứng nhận","ISO 9001:2015 certified by UK NQA",
home.process.point.2.title,home.process.point.2.title,"Quy trình an toàn bảo mật thông tin","Information security process",
home.process.point.2.content,home.process.point.2.content,"ISO 9001:2015 do NQA của Anh chứng nhận","ISO 9001:2015 certified by UK NQA",
home.process.point.3.title,home.process.point.3.title,"Quy trình quản lý dự án tuân thủ theo PMI","Project management process in compliance with PMI",
home.process.point.3.content,home.process.point.3.content,"Các quản trị dự án đều có chứng chỉ PMP","Project managers are all PMP certified",
home.coreValue.title,home.coreValue.title,"Giá trị cốt lõi","Our core values",
home.coreValue.point.1.title,home.coreValue.point.1.title,"Chất lượng","Quality",
home.coreValue.point.1.content,home.coreValue.point.1.content,"Cung cấp sản phẩm và dịch vụ chất lượng cao. Tất cả các sản phẩm của chúng tôi đều có tính ổn định cao, đây là ưu tiên hàng đầu đối với lĩnh vực tài chính, chứng khoán.","Provide high quality products and services. All of our products are highly stable, which is a top priority for the financial and securities sectors.",
home.coreValue.point.2.title,home.coreValue.point.2.title,"Kinh nghiệm","Experience",
home.coreValue.point.2.content,home.coreValue.point.2.content,"Có nhiều năm kinh nghiệm thị trường chứng khoán Việt Nam và quốc tế. Đội ngũ kĩ thuật đã triển khai nhiều giải pháp lớn trong lĩnh vực tài chính, chứng khoán.","Having many years of experience in Vietnam and international stock market. The technical team has implemented many great solutions in the field of finance and securities.",
home.coreValue.point.3.title,home.coreValue.point.3.title,"Quy trình","Procedure",
home.coreValue.point.3.content,home.coreValue.point.3.content,"Quy trình quản lý chất lượng, quản lý an toàn bảo mật thông tin, quản lý dự án theo chuẩn mực quốc tế nhưng cũng linh hoạt theo từng dự án đặc thù.","The process of quality management, information security management, project management follows international standards but is also flexible according to each specific project.",
home.strategic.partnership,home.strategic.partnership,"Đối tác <br class='md:hidden'> chiến lược","Strategic partnership",
home.customer,home.customer,"Khách hàng tiêu biểu","Our customers",
product.related,product.related,"Sản phẩm liên quan","Related products",
blog.relatedPosts,blog.relatedPosts,"Tin bài liên quan","Related posts",
site.footer.followUs,site.footer.followUs,"Theo dõi chúng tôi trên","Follow us on",
site.footer.registerEmail,site.footer.registerEmail,"Nhận Email đăng ký","Register email",
