<?xml version="1.0" encoding="utf-8"?>
<!-- Generator: Adobe Illustrator 25.0.0, SVG Export Plug-In . SVG Version: 6.00 Build 0)  -->
<svg version="1.1" id="Layer_1" xmlns="http://www.w3.org/2000/svg" xmlns:xlink="http://www.w3.org/1999/xlink" x="0px" y="0px"
	 viewBox="0 0 213.6 85.24" style="enable-background:new 0 0 213.6 85.24;" xml:space="preserve">
<style type="text/css">
	.st0{fill-rule:evenodd;clip-rule:evenodd;fill:#EF3E28;}
</style>
<g>
	<polygon class="st0" points="149.98,35.6 146.14,35.6 146.14,59.05 164.14,59.05 166.58,55.22 149.98,55.22 149.98,35.6 
		149.98,35.6 	"/>
	<path class="st0" d="M97.45,36.76L83.41,59.05h4.64l4.24-6.73h9.05l2.38-3.83h-9.05l4.93-7.72l11.55,18.28h4.64l-14.16-22.35l0,0
		C100.76,35.25,98.44,35.25,97.45,36.76L97.45,36.76L97.45,36.76L97.45,36.76z"/>
	<path class="st0" d="M124.67,39.43h16.11l2.38-3.83l-18.6,0.01l0,0c-6.47,0-10.73,5.25-10.73,11.72c0,6.47,4.26,11.72,10.73,11.72
		l0,0l15.73-0.02l2.46-3.8h-18.08l0,0c-4.36,0-6.91-3.54-6.91-7.9C117.76,42.96,120.31,39.43,124.67,39.43L124.67,39.43
		L124.67,39.43L124.67,39.43z"/>
	<path class="st0" d="M42.48,35.61h-16.6l0,0c-6.47,0-10.73,5.25-10.73,11.72c0,6.47,4.26,11.72,10.73,11.72l0,0h16.6l0,0
		c6.47,0,10.73-5.25,10.73-11.72C53.21,40.86,48.95,35.61,42.48,35.61L42.48,35.61L42.48,35.61L42.48,35.61z M42.48,55.23h-16.6l0,0
		c-4.36,0-6.91-3.54-6.91-7.9c0-4.36,2.55-7.9,6.91-7.9l0,0h16.6l0,0c4.36,0,6.91,3.54,6.91,7.9
		C49.39,51.69,46.84,55.23,42.48,55.23L42.48,55.23L42.48,55.23L42.48,55.23z"/>
	<path class="st0" d="M177.53,39.43h16.11l2.38-3.83l-18.6,0.01l0,0c-6.47,0-10.73,5.25-10.73,11.72c0,6.47,4.26,11.72,10.73,11.72
		l0,0l15.73-0.02l2.46-3.8h-18.08l0,0c-3.72,0-6.11-2.58-6.73-6.04l0,0h20.29l2.44-3.83h-22.72l0,0
		C171.46,41.96,173.85,39.43,177.53,39.43L177.53,39.43L177.53,39.43L177.53,39.43z"/>
	<path class="st0" d="M75.04,49.52c3.84,0,6.96-3.11,6.96-6.96c0-3.84-3.11-6.96-6.96-6.96l0,0L55.51,35.6v23.45h4.3V39.43h15.24
		l0,0c1.73,0,3.14,1.41,3.14,3.14c0,1.73-1.41,3.14-3.14,3.14l0,0H62.82L76.6,59.03h5.55l-9.87-9.49L75.04,49.52L75.04,49.52
		L75.04,49.52z"/>
	<path class="st0" d="M200.12,35.32c-1.15,0-2.13,0.89-2.13,2.09c0,1.21,0.97,2.1,2.13,2.1c1.14,0,2.11-0.89,2.11-2.1
		C202.23,36.2,201.26,35.32,200.12,35.32L200.12,35.32L200.12,35.32L200.12,35.32z M200.12,39.15c-0.96,0-1.71-0.74-1.71-1.75
		c0-0.99,0.75-1.74,1.71-1.74c0.95,0,1.69,0.75,1.69,1.74C201.81,38.41,201.06,39.15,200.12,39.15L200.12,39.15L200.12,39.15
		L200.12,39.15z"/>
	<path class="st0" d="M200.46,37.55c0.35-0.04,0.63-0.23,0.63-0.66c0-0.48-0.28-0.69-0.85-0.69l0,0h-0.92v2.41h0.37v-1.05h0.42
		l0.64,1.05h0.41L200.46,37.55L200.46,37.55L200.46,37.55z M199.67,37.26v-0.75h0.5l0,0c0.25,0,0.53,0.06,0.53,0.35
		c0,0.37-0.28,0.39-0.59,0.39l0,0H199.67L199.67,37.26L199.67,37.26z"/>
</g>
</svg>
