date	close
20171201	32957
20171202	24817
20171203	27686
20171204	29993
20171205	31572
20171206	33827
20171207	34525
20171208	24787
20171209	24787
20171210	24787
20171211	24787
20171212	24787
20171213	35908
20171214	37234
20171215	24787
20171216	24787
20171217	24787
20171218	38506
20171219	24787
20171220	24787
20171221	49575
20171222	61721
20180123	65364
